
*** Running vivado
    with args -log regfile_display.vds -m64 -product Vivado -mode batch -messageDb vivado.pb -notrace -source regfile_display.tcl


****** Vivado v2017.1 (64-bit)
  **** SW Build 1846317 on Fri Apr 14 18:55:03 MDT 2017
  **** IP Build 1846188 on Fri Apr 14 20:52:08 MDT 2017
    ** Copyright 1986-2017 Xilinx, Inc. All Rights Reserved.

source regfile_display.tcl -notrace
Command: synth_design -top regfile_display -part xc7a200tfbg676-2
Starting synth_design
Attempting to get a license for feature 'Synthesis' and/or device 'xc7a200t-fbg676'
INFO: [Common 17-349] Got license for feature 'Synthesis' and/or device 'xc7a200t-fbg676'
INFO: Launching helper process for spawning children vivado processes
INFO: Helper process launched with PID 16096 
---------------------------------------------------------------------------------
Starting RTL Elaboration : Time (s): cpu = 00:00:02 ; elapsed = 00:00:03 . Memory (MB): peak = 349.191 ; gain = 74.059
---------------------------------------------------------------------------------
INFO: [Synth 8-638] synthesizing module 'regfile_display' [D:/DeskTop2/MyProgram/Vivado/Reg/Reg.srcs/sources_1/new/regfile_display.v:7]
INFO: [Synth 8-638] synthesizing module 'regfile' [D:/DeskTop2/MyProgram/Vivado/Reg/Reg.srcs/sources_1/new/regfile.v:8]
INFO: [Synth 8-256] done synthesizing module 'regfile' (1#1) [D:/DeskTop2/MyProgram/Vivado/Reg/Reg.srcs/sources_1/new/regfile.v:8]
INFO: [Synth 8-638] synthesizing module 'lcd_module' [D:/DeskTop2/MyProgram/Vivado/Reg/Reg.runs/synth_1/.Xil/Vivado-4300-LAPTOP-VDN5MGEU/realtime/lcd_module_stub.v:6]
INFO: [Synth 8-256] done synthesizing module 'lcd_module' (2#1) [D:/DeskTop2/MyProgram/Vivado/Reg/Reg.runs/synth_1/.Xil/Vivado-4300-LAPTOP-VDN5MGEU/realtime/lcd_module_stub.v:6]
WARNING: [Synth 8-3848] Net led_wen in module/entity regfile_display does not have driver. [D:/DeskTop2/MyProgram/Vivado/Reg/Reg.srcs/sources_1/new/regfile_display.v:18]
INFO: [Synth 8-256] done synthesizing module 'regfile_display' (3#1) [D:/DeskTop2/MyProgram/Vivado/Reg/Reg.srcs/sources_1/new/regfile_display.v:7]
WARNING: [Synth 8-3331] design regfile_display has unconnected port led_wen
---------------------------------------------------------------------------------
Finished RTL Elaboration : Time (s): cpu = 00:00:02 ; elapsed = 00:00:04 . Memory (MB): peak = 389.270 ; gain = 114.137
---------------------------------------------------------------------------------

Report Check Netlist: 
+------+------------------+-------+---------+-------+------------------+
|      |Item              |Errors |Warnings |Status |Description       |
+------+------------------+-------+---------+-------+------------------+
|1     |multi_driven_nets |      0|        0|Passed |Multi driven nets |
+------+------------------+-------+---------+-------+------------------+
---------------------------------------------------------------------------------
Finished RTL Optimization Phase 1 : Time (s): cpu = 00:00:02 ; elapsed = 00:00:04 . Memory (MB): peak = 389.270 ; gain = 114.137
---------------------------------------------------------------------------------
INFO: [Device 21-403] Loading part xc7a200tfbg676-2
INFO: [Project 1-570] Preparing netlist for logic optimization

Processing XDC Constraints
Initializing timing engine
Parsing XDC File [D:/DeskTop2/MyProgram/Vivado/Reg/Reg.srcs/constrs_1/new/regfile.xdc]
Finished Parsing XDC File [D:/DeskTop2/MyProgram/Vivado/Reg/Reg.srcs/constrs_1/new/regfile.xdc]
INFO: [Project 1-236] Implementation specific constraints were found while reading constraint file [D:/DeskTop2/MyProgram/Vivado/Reg/Reg.srcs/constrs_1/new/regfile.xdc]. These constraints will be ignored for synthesis but will be used in implementation. Impacted constraints are listed in the file [.Xil/regfile_display_propImpl.xdc].
Resolution: To avoid this warning, move constraints listed in [.Xil/regfile_display_propImpl.xdc] to another XDC file and exclude this new file from synthesis with the used_in_synthesis property (File Properties dialog in GUI) and re-run elaboration/synthesis.
Completed Processing XDC Constraints

INFO: [Project 1-111] Unisim Transformation Summary:
No Unisim elements were transformed.

Constraint Validation Runtime : Time (s): cpu = 00:00:00 ; elapsed = 00:00:00.003 . Memory (MB): peak = 728.598 ; gain = 0.000
---------------------------------------------------------------------------------
Finished Constraint Validation : Time (s): cpu = 00:00:09 ; elapsed = 00:00:13 . Memory (MB): peak = 728.598 ; gain = 453.465
---------------------------------------------------------------------------------
---------------------------------------------------------------------------------
Start Loading Part and Timing Information
---------------------------------------------------------------------------------
Loading part: xc7a200tfbg676-2
---------------------------------------------------------------------------------
Finished Loading Part and Timing Information : Time (s): cpu = 00:00:09 ; elapsed = 00:00:13 . Memory (MB): peak = 728.598 ; gain = 453.465
---------------------------------------------------------------------------------
---------------------------------------------------------------------------------
Start Applying 'set_property' XDC Constraints
---------------------------------------------------------------------------------
---------------------------------------------------------------------------------
Finished applying 'set_property' XDC Constraints : Time (s): cpu = 00:00:09 ; elapsed = 00:00:13 . Memory (MB): peak = 728.598 ; gain = 453.465
---------------------------------------------------------------------------------
INFO: [Synth 8-5544] ROM "rdata12" won't be mapped to Block RAM because address size (1) smaller than threshold (5)
INFO: [Synth 8-5546] ROM "rdata1" won't be mapped to RAM because it is too sparse
INFO: [Synth 8-5546] ROM "rdata2" won't be mapped to RAM because it is too sparse
INFO: [Synth 8-5546] ROM "display_valid" won't be mapped to RAM because it is too sparse
INFO: [Synth 8-5546] ROM "display_name" won't be mapped to RAM because it is too sparse
WARNING: [Synth 8-327] inferring latch for variable 'rdata1_reg' [D:/DeskTop2/MyProgram/Vivado/Reg/Reg.srcs/sources_1/new/regfile.v:52]
WARNING: [Synth 8-327] inferring latch for variable 'rdata2_reg' [D:/DeskTop2/MyProgram/Vivado/Reg/Reg.srcs/sources_1/new/regfile.v:63]
---------------------------------------------------------------------------------
Finished RTL Optimization Phase 2 : Time (s): cpu = 00:00:09 ; elapsed = 00:00:13 . Memory (MB): peak = 728.598 ; gain = 453.465
---------------------------------------------------------------------------------

Report RTL Partitions: 
+-+--------------+------------+----------+
| |RTL Partition |Replication |Instances |
+-+--------------+------------+----------+
+-+--------------+------------+----------+
---------------------------------------------------------------------------------
Start RTL Component Statistics 
---------------------------------------------------------------------------------
Detailed RTL Component Info : 
+---Adders : 
	   2 Input      5 Bit       Adders := 1     
+---Registers : 
	               40 Bit    Registers := 1     
	               32 Bit    Registers := 2     
	                5 Bit    Registers := 3     
	                1 Bit    Registers := 1     
+---Muxes : 
	   2 Input     40 Bit        Muxes := 1     
	   2 Input     39 Bit        Muxes := 1     
	   7 Input     39 Bit        Muxes := 1     
	   2 Input     32 Bit        Muxes := 15    
	   3 Input     32 Bit        Muxes := 1     
	   2 Input      8 Bit        Muxes := 1     
	   2 Input      1 Bit        Muxes := 3     
	   7 Input      1 Bit        Muxes := 1     
---------------------------------------------------------------------------------
Finished RTL Component Statistics 
---------------------------------------------------------------------------------
---------------------------------------------------------------------------------
Start RTL Hierarchical Component Statistics 
---------------------------------------------------------------------------------
Hierarchical RTL Component report 
Module regfile_display 
Detailed RTL Component Info : 
+---Adders : 
	   2 Input      5 Bit       Adders := 1     
+---Registers : 
	               40 Bit    Registers := 1     
	               32 Bit    Registers := 2     
	                5 Bit    Registers := 3     
	                1 Bit    Registers := 1     
+---Muxes : 
	   2 Input     40 Bit        Muxes := 1     
	   2 Input     39 Bit        Muxes := 1     
	   7 Input     39 Bit        Muxes := 1     
	   2 Input     32 Bit        Muxes := 2     
	   2 Input      1 Bit        Muxes := 1     
	   7 Input      1 Bit        Muxes := 1     
Module regfile 
Detailed RTL Component Info : 
+---Muxes : 
	   2 Input     32 Bit        Muxes := 13    
	   3 Input     32 Bit        Muxes := 1     
	   2 Input      8 Bit        Muxes := 1     
	   2 Input      1 Bit        Muxes := 2     
---------------------------------------------------------------------------------
Finished RTL Hierarchical Component Statistics
---------------------------------------------------------------------------------
---------------------------------------------------------------------------------
Start Part Resource Summary
---------------------------------------------------------------------------------
Part Resources:
DSPs: 740 (col length:100)
BRAMs: 730 (col length: RAMB18 100 RAMB36 50)
---------------------------------------------------------------------------------
Finished Part Resource Summary
---------------------------------------------------------------------------------
---------------------------------------------------------------------------------
Start Cross Boundary and Area Optimization
---------------------------------------------------------------------------------
WARNING: [Synth 8-3331] design regfile_display has unconnected port led_wen
INFO: [Synth 8-3886] merging instance 'raddr2_reg_rep[4]' (FDRE) to 'raddr2_reg[4]'
INFO: [Synth 8-3886] merging instance 'raddr2_reg_rep[3]' (FDRE) to 'raddr2_reg[3]'
INFO: [Synth 8-3886] merging instance 'raddr2_reg_rep[2]' (FDRE) to 'raddr2_reg[2]'
INFO: [Synth 8-3886] merging instance 'raddr2_reg_rep[1]' (FDRE) to 'raddr2_reg[1]'
INFO: [Synth 8-3886] merging instance 'raddr2_reg_rep[0]' (FDRE) to 'raddr2_reg[0]'
INFO: [Synth 8-3886] merging instance 'raddr1_reg_rep[4]' (FDRE) to 'raddr1_reg[4]'
INFO: [Synth 8-3886] merging instance 'raddr1_reg_rep[3]' (FDRE) to 'raddr1_reg[3]'
INFO: [Synth 8-3886] merging instance 'raddr1_reg_rep[2]' (FDRE) to 'raddr1_reg[2]'
INFO: [Synth 8-3886] merging instance 'raddr1_reg_rep[1]' (FDRE) to 'raddr1_reg[1]'
INFO: [Synth 8-3886] merging instance 'raddr1_reg_rep[0]' (FDRE) to 'raddr1_reg[0]'
INFO: [Synth 8-3886] merging instance 'display_name_reg[6]' (FDR) to 'display_name_reg[32]'
INFO: [Synth 8-3886] merging instance 'display_name_reg[7]' (FDR) to 'display_name_reg[9]'
INFO: [Synth 8-3886] merging instance 'display_name_reg[9]' (FDR) to 'display_name_reg[11]'
INFO: [Synth 8-3886] merging instance 'display_name_reg[10]' (FDR) to 'display_name_reg[14]'
INFO: [Synth 8-3886] merging instance 'display_name_reg[11]' (FDR) to 'display_name_reg[15]'
INFO: [Synth 8-3886] merging instance 'display_name_reg[12]' (FDS) to 'display_name_reg[16]'
INFO: [Synth 8-3886] merging instance 'display_name_reg[13]' (FDS) to 'display_name_reg[17]'
INFO: [Synth 8-3886] merging instance 'display_name_reg[15]' (FDR) to 'display_name_reg[19]'
INFO: [Synth 8-3886] merging instance 'display_name_reg[16]' (FDS) to 'display_name_reg[26]'
INFO: [Synth 8-3886] merging instance 'display_name_reg[18]' (FDS) to 'display_name_reg[24]'
INFO: [Synth 8-3886] merging instance 'display_name_reg[19]' (FDR) to 'display_name_reg[20]'
INFO: [Synth 8-3886] merging instance 'display_name_reg[20]' (FDR) to 'display_name_reg[21]'
INFO: [Synth 8-3886] merging instance 'display_name_reg[21]' (FDR) to 'display_name_reg[23]'
INFO: [Synth 8-3886] merging instance 'display_name_reg[22]' (FDS) to 'display_name_reg[30]'
INFO: [Synth 8-3886] merging instance 'display_name_reg[23]' (FDR) to 'display_name_reg[25]'
INFO: [Synth 8-3886] merging instance 'display_name_reg[25]' (FDR) to 'display_name_reg[27]'
INFO: [Synth 8-3886] merging instance 'display_name_reg[27]' (FDR) to 'display_name_reg[28]'
INFO: [Synth 8-3886] merging instance 'display_name_reg[28]' (FDR) to 'display_name_reg[29]'
INFO: [Synth 8-3886] merging instance 'display_name_reg[29]' (FDR) to 'display_name_reg[31]'
INFO: [Synth 8-3886] merging instance 'display_name_reg[30]' (FDS) to 'display_name_reg[33]'
INFO: [Synth 8-3886] merging instance 'display_name_reg[31]' (FDR) to 'display_name_reg[35]'
INFO: [Synth 8-3886] merging instance 'display_name_reg[32]' (FDR) to 'display_name_reg[34]'
INFO: [Synth 8-3886] merging instance 'display_name_reg[33]' (FDS) to 'display_name_reg[36]'
INFO: [Synth 8-3886] merging instance 'display_name_reg[35]' (FDR) to 'display_name_reg[37]'
INFO: [Synth 8-3886] merging instance 'display_name_reg[36]' (FDS) to 'display_name_reg[38]'
INFO: [Synth 8-3886] merging instance 'display_name_reg[37]' (FDR) to 'display_name_reg[39]'
INFO: [Synth 8-3333] propagating constant 0 across sequential element (\display_name_reg[39] )
WARNING: [Synth 8-3332] Sequential element (display_name_reg[39]) is unused and will be removed from module regfile_display.
---------------------------------------------------------------------------------
Finished Cross Boundary and Area Optimization : Time (s): cpu = 00:00:10 ; elapsed = 00:00:14 . Memory (MB): peak = 728.598 ; gain = 453.465
---------------------------------------------------------------------------------
---------------------------------------------------------------------------------
Start ROM, RAM, DSP and Shift Register Reporting
---------------------------------------------------------------------------------

Distributed RAM: Preliminary Mapping  Report (see note below)
+----------------+------------------+-----------+----------------------+-----------------+
|Module Name     | RTL Object       | Inference | Size (Depth x Width) | Primitives      | 
+----------------+------------------+-----------+----------------------+-----------------+
|regfile_display | rf_module/rf_reg | Implied   | 32 x 32              | RAM32X1D x 96   | 
+----------------+------------------+-----------+----------------------+-----------------+

Note: The table above is a preliminary report that shows the Distributed RAMs at the current stage of the synthesis flow. Some Distributed RAMs may be reimplemented as non Distributed RAM primitives later in the synthesis flow. Multiple instantiated RAMs are reported only once.
---------------------------------------------------------------------------------
Finished ROM, RAM, DSP and Shift Register Reporting
---------------------------------------------------------------------------------

Report RTL Partitions: 
+-+--------------+------------+----------+
| |RTL Partition |Replication |Instances |
+-+--------------+------------+----------+
+-+--------------+------------+----------+
---------------------------------------------------------------------------------
Start Applying XDC Timing Constraints
---------------------------------------------------------------------------------
---------------------------------------------------------------------------------
Finished Applying XDC Timing Constraints : Time (s): cpu = 00:00:17 ; elapsed = 00:00:21 . Memory (MB): peak = 728.598 ; gain = 453.465
---------------------------------------------------------------------------------
---------------------------------------------------------------------------------
Start Timing Optimization
---------------------------------------------------------------------------------
---------------------------------------------------------------------------------
Finished Timing Optimization : Time (s): cpu = 00:00:17 ; elapsed = 00:00:21 . Memory (MB): peak = 728.598 ; gain = 453.465
---------------------------------------------------------------------------------

Report RTL Partitions: 
+-+--------------+------------+----------+
| |RTL Partition |Replication |Instances |
+-+--------------+------------+----------+
+-+--------------+------------+----------+
---------------------------------------------------------------------------------
Start Technology Mapping
---------------------------------------------------------------------------------
INFO: [Synth 8-3886] merging instance 'display_name_reg[38]' (FDS) to 'display_valid_reg'
---------------------------------------------------------------------------------
Finished Technology Mapping : Time (s): cpu = 00:00:17 ; elapsed = 00:00:21 . Memory (MB): peak = 728.598 ; gain = 453.465
---------------------------------------------------------------------------------

Report RTL Partitions: 
+-+--------------+------------+----------+
| |RTL Partition |Replication |Instances |
+-+--------------+------------+----------+
+-+--------------+------------+----------+
---------------------------------------------------------------------------------
Start IO Insertion
---------------------------------------------------------------------------------
---------------------------------------------------------------------------------
Start Flattening Before IO Insertion
---------------------------------------------------------------------------------
---------------------------------------------------------------------------------
Finished Flattening Before IO Insertion
---------------------------------------------------------------------------------
---------------------------------------------------------------------------------
Start Final Netlist Cleanup
---------------------------------------------------------------------------------
---------------------------------------------------------------------------------
Finished Final Netlist Cleanup
---------------------------------------------------------------------------------
---------------------------------------------------------------------------------
Finished IO Insertion : Time (s): cpu = 00:00:18 ; elapsed = 00:00:22 . Memory (MB): peak = 728.598 ; gain = 453.465
---------------------------------------------------------------------------------

Report Check Netlist: 
+------+------------------+-------+---------+-------+------------------+
|      |Item              |Errors |Warnings |Status |Description       |
+------+------------------+-------+---------+-------+------------------+
|1     |multi_driven_nets |      0|        0|Passed |Multi driven nets |
+------+------------------+-------+---------+-------+------------------+
---------------------------------------------------------------------------------
Start Renaming Generated Instances
---------------------------------------------------------------------------------
---------------------------------------------------------------------------------
Finished Renaming Generated Instances : Time (s): cpu = 00:00:18 ; elapsed = 00:00:22 . Memory (MB): peak = 728.598 ; gain = 453.465
---------------------------------------------------------------------------------

Report RTL Partitions: 
+-+--------------+------------+----------+
| |RTL Partition |Replication |Instances |
+-+--------------+------------+----------+
+-+--------------+------------+----------+
---------------------------------------------------------------------------------
Start Rebuilding User Hierarchy
---------------------------------------------------------------------------------
---------------------------------------------------------------------------------
Finished Rebuilding User Hierarchy : Time (s): cpu = 00:00:18 ; elapsed = 00:00:22 . Memory (MB): peak = 728.598 ; gain = 453.465
---------------------------------------------------------------------------------
---------------------------------------------------------------------------------
Start Renaming Generated Ports
---------------------------------------------------------------------------------
---------------------------------------------------------------------------------
Finished Renaming Generated Ports : Time (s): cpu = 00:00:18 ; elapsed = 00:00:22 . Memory (MB): peak = 728.598 ; gain = 453.465
---------------------------------------------------------------------------------
---------------------------------------------------------------------------------
Start Handling Custom Attributes
---------------------------------------------------------------------------------
---------------------------------------------------------------------------------
Finished Handling Custom Attributes : Time (s): cpu = 00:00:18 ; elapsed = 00:00:22 . Memory (MB): peak = 728.598 ; gain = 453.465
---------------------------------------------------------------------------------
---------------------------------------------------------------------------------
Start Renaming Generated Nets
---------------------------------------------------------------------------------
---------------------------------------------------------------------------------
Finished Renaming Generated Nets : Time (s): cpu = 00:00:18 ; elapsed = 00:00:22 . Memory (MB): peak = 728.598 ; gain = 453.465
---------------------------------------------------------------------------------
---------------------------------------------------------------------------------
Start Writing Synthesis Report
---------------------------------------------------------------------------------

Report BlackBoxes: 
+------+--------------+----------+
|      |BlackBox name |Instances |
+------+--------------+----------+
|1     |lcd_module    |         1|
+------+--------------+----------+

Report Cell Usage: 
+------+-----------+------+
|      |Cell       |Count |
+------+-----------+------+
|1     |lcd_module |     1|
|2     |BUFG       |     1|
|3     |LUT1       |     2|
|4     |LUT2       |     5|
|5     |LUT3       |     6|
|6     |LUT4       |    28|
|7     |LUT5       |    13|
|8     |LUT6       |    49|
|9     |RAM32X1D   |    96|
|10    |FDRE       |    86|
|11    |FDSE       |     6|
|12    |LDC        |    64|
|13    |IBUF       |    10|
|14    |OBUF       |    12|
|15    |OBUFT      |     1|
+------+-----------+------+

Report Instance Areas: 
+------+------------+--------+------+
|      |Instance    |Module  |Cells |
+------+------------+--------+------+
|1     |top         |        |   426|
|2     |  rf_module |regfile |   240|
+------+------------+--------+------+
---------------------------------------------------------------------------------
Finished Writing Synthesis Report : Time (s): cpu = 00:00:18 ; elapsed = 00:00:22 . Memory (MB): peak = 728.598 ; gain = 453.465
---------------------------------------------------------------------------------
Synthesis finished with 0 errors, 0 critical warnings and 4 warnings.
Synthesis Optimization Runtime : Time (s): cpu = 00:00:11 ; elapsed = 00:00:15 . Memory (MB): peak = 728.598 ; gain = 114.137
Synthesis Optimization Complete : Time (s): cpu = 00:00:18 ; elapsed = 00:00:22 . Memory (MB): peak = 728.598 ; gain = 453.465
INFO: [Project 1-571] Translating synthesized netlist
INFO: [Netlist 29-17] Analyzing 170 Unisim elements for replacement
INFO: [Netlist 29-28] Unisim Transformation completed in 0 CPU seconds
INFO: [Project 1-570] Preparing netlist for logic optimization
INFO: [Opt 31-138] Pushed 0 inverter(s) to 0 load pin(s).
INFO: [Project 1-111] Unisim Transformation Summary:
  A total of 160 instances were transformed.
  LDC => LDCE: 64 instances
  RAM32X1D => RAM32X1D (RAMD32, RAMD32): 96 instances

60 Infos, 6 Warnings, 0 Critical Warnings and 0 Errors encountered.
synth_design completed successfully
synth_design: Time (s): cpu = 00:00:19 ; elapsed = 00:00:24 . Memory (MB): peak = 728.598 ; gain = 458.039
INFO: [Common 17-1381] The checkpoint 'D:/DeskTop2/MyProgram/Vivado/Reg/Reg.runs/synth_1/regfile_display.dcp' has been generated.
report_utilization: Time (s): cpu = 00:00:00 ; elapsed = 00:00:00.095 . Memory (MB): peak = 728.598 ; gain = 0.000
INFO: [Common 17-206] Exiting Vivado at Thu Apr 20 14:06:43 2023...
